%!PS-Adobe-2.0
%%Title: memetest-exe qsem +RTS -N -A64m -H500m -I0 -T -L500 -p -s -t -h
%%Creator: hp2ps (version 0.25)
%%CreationDate: Fri Feb 25 21:16 2022
%%EndComments
-90 rotate
-756.000000 72.000000 translate
/HE10 /Helvetica findfont 10 scalefont def
/HE12 /Helvetica findfont 12 scalefont def
newpath
0 0 moveto
0 432.000000 rlineto
648.000000 0 rlineto
0 -432.000000 rlineto
closepath
0.500000 setlinewidth
stroke
newpath
5.000000 387.000000 moveto
0 40.000000 rlineto
638.000000 0 rlineto
0 -40.000000 rlineto
closepath
0.500000 setlinewidth
stroke
5.000000 407.000000 moveto
638.000000 0 rlineto
stroke
HE12 setfont
11.000000 413.000000 moveto
(memetest-exe qsem +RTS -N -A64m -H500m -I0 -T -L500 -p -s -t -h) show
HE12 setfont
11.000000 393.000000 moveto
(17,621,908 bytes x seconds)
show
HE12 setfont
(Fri Feb 25 21:16 2022)
dup stringwidth pop
637.000000
exch sub
393.000000 moveto
show
50.000000 10.238095 moveto
0 14 rlineto
14 0 rlineto
0 -14 rlineto
closepath
gsave
0.000000 0.000000 0.000000 setrgbcolor
fill
grestore
stroke
HE10 setfont
69.000000 12.238095 moveto
(OTHER) show
50.000000 27.476190 moveto
0 14 rlineto
14 0 rlineto
0 -14 rlineto
closepath
gsave
0.000000 0.000000 1.000000 setrgbcolor
fill
grestore
stroke
HE10 setfont
69.000000 29.476190 moveto
(\(9406\)GHC.Conc.Signal.CAF) show
50.000000 44.714286 moveto
0 14 rlineto
14 0 rlineto
0 -14 rlineto
closepath
gsave
0.000000 1.000000 0.000000 setrgbcolor
fill
grestore
stroke
HE10 setfont
69.000000 46.714286 moveto
(\(19247\)httpAcceptLoop.loop.prep/httpAcceptLoop.loop.go.\\/httpAcceptLoop.loop.go/eatException/httpAcceptLoop.loop/wrapAction/forkIOLabeledWithUnmaskBs.\\/forkIOLabeledWithUnmaskBs/rawHttpServe.runLoop/rawHttpServe.\\/rawHttpServe/httpServe/startServer/forkServerWith/forkServer/main) show
50.000000 61.952381 moveto
0 14 rlineto
14 0 rlineto
0 -14 rlineto
closepath
gsave
0.000000 1.000000 1.000000 setrgbcolor
fill
grestore
stroke
HE10 setfont
69.000000 63.952381 moveto
(\(19294\)throwSocketErrorIfMinus1RetryMayBlock/throwSocketErrorWaitRead.\\/withFdSocket/recvBuf/socketToStreamsWithBufferSizeImpl.recv/socketToStreamsWithBufferSizeImpl.input/socketToStreamsWithBufferSizeImpl/socketToStreamsWithBufferSize/httpAcceptFunc.\\.\\/acceptAndInitialize/httpAcceptFunc.\\/httpAcceptFunc/listeners.httpListener/listeners.\\/listeners/runAcceptFunc/httpAcceptLoop.loop.go/eatException/httpAcceptLoop.loop/wrapAction/forkIOLabeledWithUnmaskBs.\\/forkIOLabeledWithUnmaskBs/rawHttpServe.run...) show
50.000000 79.190476 moveto
0 14 rlineto
14 0 rlineto
0 -14 rlineto
closepath
gsave
1.000000 0.000000 0.000000 setrgbcolor
fill
grestore
stroke
HE10 setfont
69.000000 81.190476 moveto
(\(9319\)GHC.Event.Thread.CAF) show
50.000000 96.428571 moveto
0 14 rlineto
14 0 rlineto
0 -14 rlineto
closepath
gsave
1.000000 0.000000 1.000000 setrgbcolor
fill
grestore
stroke
HE10 setfont
69.000000 98.428571 moveto
(\(19255\)httpSession/httpAcceptLoop.session/httpAcceptLoop.loop.prep/httpAcceptLoop.loop.go.\\/httpAcceptLoop.loop.go/eatException/httpAcceptLoop.loop/wrapAction/forkIOLabeledWithUnmaskBs.\\/forkIOLabeledWithUnmaskBs/rawHttpServe.runLoop/rawHttpServe.\\/rawHttpServe/httpServe/startServer/forkServerWith/forkServer/main) show
50.000000 113.666667 moveto
0 14 rlineto
14 0 rlineto
0 -14 rlineto
closepath
gsave
1.000000 1.000000 0.000000 setrgbcolor
fill
grestore
stroke
HE10 setfont
69.000000 115.666667 moveto
(\(18679\)insert'.go/insert'/insert/insert/registerGroup.register_/registerGroup.\\.state'/registerGroup.\\/registerGroup/registerGcMetrics/forkServer/main) show
50.000000 130.904762 moveto
0 14 rlineto
14 0 rlineto
0 -14 rlineto
closepath
gsave
1.000000 1.000000 1.000000 setrgbcolor
fill
grestore
stroke
HE10 setfont
69.000000 132.904762 moveto
(\(22614\)new_/unsafeInsert.go/unsafeInsert/fromList.\\/fromList/defaultMimeTypes/CAF:defaultMimeTypes) show
50.000000 148.142857 moveto
0 14 rlineto
14 0 rlineto
0 -14 rlineto
closepath
gsave
0.000000 0.000000 0.500000 setrgbcolor
fill
grestore
stroke
HE10 setfont
69.000000 150.142857 moveto
(\(9386\)GHC.IO.Encoding.CAF) show
50.000000 165.380952 moveto
0 14 rlineto
14 0 rlineto
0 -14 rlineto
closepath
gsave
0.000000 0.500000 0.000000 setrgbcolor
fill
grestore
stroke
HE10 setfont
69.000000 167.380952 moveto
(\(18612\)unsafeInsert.go/unsafeInsert/fromList.\\/fromList/registerGcMetrics/CAF:registerGcMetrics17) show
50.000000 182.619048 moveto
0 14 rlineto
14 0 rlineto
0 -14 rlineto
closepath
gsave
0.000000 0.500000 1.000000 setrgbcolor
fill
grestore
stroke
HE10 setfont
69.000000 184.619048 moveto
(\(19597\)httpSession/processRequest/httpSession.loop/httpSession/httpAcceptLoop.session/httpAcceptLoop.loop.prep/httpAcceptLoop.loop.go.\\/httpAcceptLoop.loop.go/eatException/httpAcceptLoop.loop/wrapAction/forkIOLabeledWithUnmaskBs.\\/forkIOLabeledWithUnmaskBs/rawHttpServe.runLoop/rawHttpServe.\\/rawHttpServe/httpServe/startServer/forkServerWith/forkServer/main) show
50.000000 199.857143 moveto
0 14 rlineto
14 0 rlineto
0 -14 rlineto
closepath
gsave
0.000000 1.000000 0.500000 setrgbcolor
fill
grestore
stroke
HE10 setfont
69.000000 201.857143 moveto
(\(22609\)unsafeInsert.go/unsafeInsert/fromList.\\/fromList/defaultMimeTypes/CAF:defaultMimeTypes) show
50.000000 217.095238 moveto
0 14 rlineto
14 0 rlineto
0 -14 rlineto
closepath
gsave
0.500000 0.000000 0.000000 setrgbcolor
fill
grestore
stroke
HE10 setfont
69.000000 219.095238 moveto
(\(22539\)statusReasonMap/CAF:statusReasonMap) show
50.000000 234.333333 moveto
0 14 rlineto
14 0 rlineto
0 -14 rlineto
closepath
gsave
0.500000 0.000000 1.000000 setrgbcolor
fill
grestore
stroke
HE10 setfont
69.000000 236.333333 moveto
(\(18460\)CAF:getDataDir4) show
50.000000 251.571429 moveto
0 14 rlineto
14 0 rlineto
0 -14 rlineto
closepath
gsave
0.500000 0.900000 0.000000 setrgbcolor
fill
grestore
stroke
HE10 setfont
69.000000 253.571429 moveto
(\(9299\)SYSTEM) show
50.000000 268.809524 moveto
0 14 rlineto
14 0 rlineto
0 -14 rlineto
closepath
gsave
0.500000 1.000000 1.000000 setrgbcolor
fill
grestore
stroke
HE10 setfont
69.000000 270.809524 moveto
(\(18746\)action/asyncUsing.\\.\\/asyncUsing.\\/asyncUsing/async/mapConcurrently'.\\/mapConcurrently'/main.\\/main) show
50.000000 286.047619 moveto
0 14 rlineto
14 0 rlineto
0 -14 rlineto
closepath
gsave
1.000000 0.000000 0.500000 setrgbcolor
fill
grestore
stroke
HE10 setfont
69.000000 288.047619 moveto
(\(9295\)PINNED) show
50.000000 303.285714 moveto
0 14 rlineto
14 0 rlineto
0 -14 rlineto
closepath
gsave
1.000000 0.500000 0.000000 setrgbcolor
fill
grestore
stroke
HE10 setfont
69.000000 305.285714 moveto
(MAIN) show
50.000000 320.523810 moveto
0 14 rlineto
14 0 rlineto
0 -14 rlineto
closepath
gsave
1.000000 0.500000 1.000000 setrgbcolor
fill
grestore
stroke
HE10 setfont
69.000000 322.523810 moveto
(\(18743\)asyncUsing.\\.\\/asyncUsing.\\/asyncUsing/async/mapConcurrently'.\\/mapConcurrently'/main.\\/main) show
50.000000 337.761905 moveto
0 14 rlineto
14 0 rlineto
0 -14 rlineto
closepath
gsave
1.000000 1.000000 0.500000 setrgbcolor
fill
grestore
stroke
HE10 setfont
69.000000 339.761905 moveto
(\(18742\)asyncUsing.\\/asyncUsing/async/mapConcurrently'.\\/mapConcurrently'/main.\\/main) show
showpage
-90 rotate
-756.000000 72.000000 translate
newpath
0 0 moveto
0 432.000000 rlineto
648.000000 0 rlineto
0 -432.000000 rlineto
closepath
0.500000 setlinewidth
stroke
newpath
5.000000 387.000000 moveto
0 40.000000 rlineto
638.000000 0 rlineto
0 -40.000000 rlineto
closepath
0.500000 setlinewidth
stroke
5.000000 407.000000 moveto
638.000000 0 rlineto
stroke
HE12 setfont
11.000000 413.000000 moveto
(memetest-exe qsem +RTS -N -A64m -H500m -I0 -T -L500 -p -s -t -h) show
HE12 setfont
11.000000 393.000000 moveto
(17,621,908 bytes x seconds)
show
HE12 setfont
(Fri Feb 25 21:16 2022)
dup stringwidth pop
637.000000
exch sub
393.000000 moveto
show
45.000000 20.000000 moveto
593.000000 0 rlineto
0.500000 setlinewidth
stroke
HE10 setfont
(seconds)
dup stringwidth pop
638.000000
exch sub
5.000000 moveto
show
45.000000 20.000000 moveto
0 -4 rlineto
stroke
HE10 setfont
(0.0)
dup stringwidth pop
2 div
45.000000 exch sub
5.000000 moveto
show
100.723855 20.000000 moveto
0 -4 rlineto
stroke
HE10 setfont
(0.5)
dup stringwidth pop
2 div
100.723855 exch sub
5.000000 moveto
show
156.447710 20.000000 moveto
0 -4 rlineto
stroke
HE10 setfont
(1.0)
dup stringwidth pop
2 div
156.447710 exch sub
5.000000 moveto
show
212.171564 20.000000 moveto
0 -4 rlineto
stroke
HE10 setfont
(1.5)
dup stringwidth pop
2 div
212.171564 exch sub
5.000000 moveto
show
267.895419 20.000000 moveto
0 -4 rlineto
stroke
HE10 setfont
(2.0)
dup stringwidth pop
2 div
267.895419 exch sub
5.000000 moveto
show
323.619274 20.000000 moveto
0 -4 rlineto
stroke
HE10 setfont
(2.5)
dup stringwidth pop
2 div
323.619274 exch sub
5.000000 moveto
show
379.343129 20.000000 moveto
0 -4 rlineto
stroke
HE10 setfont
(3.0)
dup stringwidth pop
2 div
379.343129 exch sub
5.000000 moveto
show
435.066983 20.000000 moveto
0 -4 rlineto
stroke
HE10 setfont
(3.5)
dup stringwidth pop
2 div
435.066983 exch sub
5.000000 moveto
show
490.790838 20.000000 moveto
0 -4 rlineto
stroke
HE10 setfont
(4.0)
dup stringwidth pop
2 div
490.790838 exch sub
5.000000 moveto
show
546.514693 20.000000 moveto
0 -4 rlineto
stroke
HE10 setfont
(4.5)
dup stringwidth pop
2 div
546.514693 exch sub
5.000000 moveto
show
45.000000 20.000000 moveto
0 362.000000 rlineto
0.500000 setlinewidth
stroke
gsave
HE10 setfont
(bytes)
dup stringwidth pop
382.000000
exch sub
40.000000 exch
translate
90 rotate
0 0 moveto
show
grestore
45.000000 20.000000 moveto
-4 0 rlineto
stroke
HE10 setfont
(0k)
dup stringwidth
2 div
20.000000 exch sub
exch
40.000000 exch sub
exch
moveto
show
45.000000 50.432975 moveto
-4 0 rlineto
stroke
HE10 setfont
(500k)
dup stringwidth
2 div
50.432975 exch sub
exch
40.000000 exch sub
exch
moveto
show
45.000000 80.865951 moveto
-4 0 rlineto
stroke
HE10 setfont
(1,000k)
dup stringwidth
2 div
80.865951 exch sub
exch
40.000000 exch sub
exch
moveto
show
45.000000 111.298926 moveto
-4 0 rlineto
stroke
HE10 setfont
(1,500k)
dup stringwidth
2 div
111.298926 exch sub
exch
40.000000 exch sub
exch
moveto
show
45.000000 141.731902 moveto
-4 0 rlineto
stroke
HE10 setfont
(2,000k)
dup stringwidth
2 div
141.731902 exch sub
exch
40.000000 exch sub
exch
moveto
show
45.000000 172.164877 moveto
-4 0 rlineto
stroke
HE10 setfont
(2,500k)
dup stringwidth
2 div
172.164877 exch sub
exch
40.000000 exch sub
exch
moveto
show
45.000000 202.597853 moveto
-4 0 rlineto
stroke
HE10 setfont
(3,000k)
dup stringwidth
2 div
202.597853 exch sub
exch
40.000000 exch sub
exch
moveto
show
45.000000 233.030828 moveto
-4 0 rlineto
stroke
HE10 setfont
(3,500k)
dup stringwidth
2 div
233.030828 exch sub
exch
40.000000 exch sub
exch
moveto
show
45.000000 263.463804 moveto
-4 0 rlineto
stroke
HE10 setfont
(4,000k)
dup stringwidth
2 div
263.463804 exch sub
exch
40.000000 exch sub
exch
moveto
show
45.000000 293.896779 moveto
-4 0 rlineto
stroke
HE10 setfont
(4,500k)
dup stringwidth
2 div
293.896779 exch sub
exch
40.000000 exch sub
exch
moveto
show
45.000000 324.329755 moveto
-4 0 rlineto
stroke
HE10 setfont
(5,000k)
dup stringwidth
2 div
324.329755 exch sub
exch
40.000000 exch sub
exch
moveto
show
45.000000 20.000000 moveto
45.000000 20.000000 lineto
91.863650 20.000000 lineto
174.853633 20.000000 lineto
264.981396 20.000000 lineto
365.102229 20.000000 lineto
470.707181 20.000000 lineto
638.000000 20.000000 lineto
638.000000 20.000000 lineto
638.000000 20.000000 lineto
470.707181 20.192823 lineto
365.102229 20.179676 lineto
264.981396 20.186980 lineto
174.853633 20.192823 lineto
91.863650 20.181137 lineto
45.000000 20.000000 lineto
closepath
gsave
0.000000 0.000000 0.000000 setrgbcolor
fill
grestore
stroke
45.000000 20.000000 moveto
45.000000 20.000000 lineto
91.863650 20.181137 lineto
174.853633 20.192823 lineto
264.981396 20.186980 lineto
365.102229 20.179676 lineto
470.707181 20.192823 lineto
638.000000 20.000000 lineto
638.000000 20.000000 lineto
638.000000 20.000000 lineto
470.707181 20.231778 lineto
365.102229 20.218630 lineto
264.981396 20.225934 lineto
174.853633 20.231778 lineto
91.863650 20.220091 lineto
45.000000 20.000000 lineto
closepath
gsave
0.000000 0.000000 1.000000 setrgbcolor
fill
grestore
stroke
45.000000 20.000000 moveto
45.000000 20.000000 lineto
91.863650 20.220091 lineto
174.853633 20.231778 lineto
264.981396 20.225934 lineto
365.102229 20.218630 lineto
470.707181 20.231778 lineto
638.000000 20.000000 lineto
638.000000 20.000000 lineto
638.000000 20.000000 lineto
470.707181 20.273653 lineto
365.102229 20.260506 lineto
264.981396 20.266836 lineto
174.853633 20.272679 lineto
91.863650 20.260993 lineto
45.000000 20.000000 lineto
closepath
gsave
0.000000 1.000000 0.000000 setrgbcolor
fill
grestore
stroke
45.000000 20.000000 moveto
45.000000 20.000000 lineto
91.863650 20.260993 lineto
174.853633 20.272679 lineto
264.981396 20.266836 lineto
365.102229 20.260506 lineto
470.707181 20.273653 lineto
638.000000 20.000000 lineto
638.000000 20.000000 lineto
638.000000 20.000000 lineto
470.707181 20.319425 lineto
365.102229 20.289722 lineto
264.981396 20.312608 lineto
174.853633 20.316503 lineto
91.863650 20.304817 lineto
45.000000 20.000000 lineto
closepath
gsave
0.000000 1.000000 1.000000 setrgbcolor
fill
grestore
stroke
45.000000 20.000000 moveto
45.000000 20.000000 lineto
91.863650 20.304817 lineto
174.853633 20.316503 lineto
264.981396 20.312608 lineto
365.102229 20.289722 lineto
470.707181 20.319425 lineto
638.000000 20.000000 lineto
638.000000 20.000000 lineto
638.000000 20.000000 lineto
470.707181 20.364709 lineto
365.102229 20.335006 lineto
264.981396 20.357892 lineto
174.853633 20.361787 lineto
91.863650 20.350101 lineto
45.000000 20.000000 lineto
closepath
gsave
1.000000 0.000000 0.000000 setrgbcolor
fill
grestore
stroke
45.000000 20.000000 moveto
45.000000 20.000000 lineto
91.863650 20.350101 lineto
174.853633 20.361787 lineto
264.981396 20.357892 lineto
365.102229 20.335006 lineto
470.707181 20.364709 lineto
638.000000 20.000000 lineto
638.000000 20.000000 lineto
638.000000 20.000000 lineto
470.707181 20.423140 lineto
365.102229 20.393438 lineto
264.981396 20.416323 lineto
174.853633 20.420219 lineto
91.863650 20.408532 lineto
45.000000 20.000000 lineto
closepath
gsave
1.000000 0.000000 1.000000 setrgbcolor
fill
grestore
stroke
45.000000 20.000000 moveto
45.000000 20.000000 lineto
91.863650 20.408532 lineto
174.853633 20.420219 lineto
264.981396 20.416323 lineto
365.102229 20.393438 lineto
470.707181 20.423140 lineto
638.000000 20.000000 lineto
638.000000 20.000000 lineto
638.000000 20.000000 lineto
470.707181 20.482058 lineto
365.102229 20.452356 lineto
264.981396 20.475241 lineto
174.853633 20.479137 lineto
91.863650 20.467451 lineto
45.000000 20.000000 lineto
closepath
gsave
1.000000 1.000000 0.000000 setrgbcolor
fill
grestore
stroke
45.000000 20.000000 moveto
45.000000 20.000000 lineto
91.863650 20.467451 lineto
174.853633 20.479137 lineto
264.981396 20.475241 lineto
365.102229 20.452356 lineto
470.707181 20.482058 lineto
638.000000 20.000000 lineto
638.000000 20.000000 lineto
638.000000 20.000000 lineto
470.707181 20.543898 lineto
365.102229 20.514196 lineto
264.981396 20.537081 lineto
174.853633 20.540977 lineto
91.863650 20.529290 lineto
45.000000 20.000000 lineto
closepath
gsave
1.000000 1.000000 1.000000 setrgbcolor
fill
grestore
stroke
45.000000 20.000000 moveto
45.000000 20.000000 lineto
91.863650 20.529290 lineto
174.853633 20.540977 lineto
264.981396 20.537081 lineto
365.102229 20.514196 lineto
470.707181 20.543898 lineto
638.000000 20.000000 lineto
638.000000 20.000000 lineto
638.000000 20.000000 lineto
470.707181 20.610607 lineto
365.102229 20.580905 lineto
264.981396 20.603790 lineto
174.853633 20.607686 lineto
91.863650 20.595999 lineto
45.000000 20.000000 lineto
closepath
gsave
0.000000 0.000000 0.500000 setrgbcolor
fill
grestore
stroke
45.000000 20.000000 moveto
45.000000 20.000000 lineto
91.863650 20.595999 lineto
174.853633 20.607686 lineto
264.981396 20.603790 lineto
365.102229 20.580905 lineto
470.707181 20.610607 lineto
638.000000 20.000000 lineto
638.000000 20.000000 lineto
638.000000 20.000000 lineto
470.707181 20.702150 lineto
365.102229 20.672447 lineto
264.981396 20.695333 lineto
174.853633 20.699228 lineto
91.863650 20.687542 lineto
45.000000 20.000000 lineto
closepath
gsave
0.000000 0.500000 0.000000 setrgbcolor
fill
grestore
stroke
45.000000 20.000000 moveto
45.000000 20.000000 lineto
91.863650 20.687542 lineto
174.853633 20.699228 lineto
264.981396 20.695333 lineto
365.102229 20.672447 lineto
470.707181 20.702150 lineto
638.000000 20.000000 lineto
638.000000 20.000000 lineto
638.000000 20.000000 lineto
470.707181 20.802944 lineto
365.102229 20.769346 lineto
264.981396 20.796127 lineto
174.853633 20.800022 lineto
91.863650 20.788336 lineto
45.000000 20.000000 lineto
closepath
gsave
0.000000 0.500000 1.000000 setrgbcolor
fill
grestore
stroke
45.000000 20.000000 moveto
45.000000 20.000000 lineto
91.863650 20.788336 lineto
174.853633 20.800022 lineto
264.981396 20.796127 lineto
365.102229 20.769346 lineto
470.707181 20.802944 lineto
638.000000 20.000000 lineto
638.000000 20.000000 lineto
638.000000 20.000000 lineto
470.707181 21.025470 lineto
365.102229 20.991872 lineto
264.981396 21.018653 lineto
174.853633 21.022548 lineto
91.863650 21.010862 lineto
45.000000 20.000000 lineto
closepath
gsave
0.000000 1.000000 0.500000 setrgbcolor
fill
grestore
stroke
45.000000 20.000000 moveto
45.000000 20.000000 lineto
91.863650 21.010862 lineto
174.853633 21.022548 lineto
264.981396 21.018653 lineto
365.102229 20.991872 lineto
470.707181 21.025470 lineto
638.000000 20.000000 lineto
638.000000 20.000000 lineto
638.000000 20.000000 lineto
470.707181 21.264551 lineto
365.102229 21.230953 lineto
264.981396 21.257734 lineto
174.853633 21.261629 lineto
91.863650 21.249943 lineto
45.000000 20.000000 lineto
closepath
gsave
0.500000 0.000000 0.000000 setrgbcolor
fill
grestore
stroke
45.000000 20.000000 moveto
45.000000 20.000000 lineto
91.863650 21.249943 lineto
174.853633 21.261629 lineto
264.981396 21.257734 lineto
365.102229 21.230953 lineto
470.707181 21.264551 lineto
638.000000 20.000000 lineto
638.000000 20.000000 lineto
638.000000 20.000000 lineto
470.707181 21.507041 lineto
365.102229 21.473443 lineto
264.981396 21.500224 lineto
174.853633 21.504119 lineto
91.863650 21.492433 lineto
45.000000 20.000000 lineto
closepath
gsave
0.500000 0.000000 1.000000 setrgbcolor
fill
grestore
stroke
45.000000 20.000000 moveto
45.000000 20.000000 lineto
91.863650 21.492433 lineto
174.853633 21.504119 lineto
264.981396 21.500224 lineto
365.102229 21.473443 lineto
470.707181 21.507041 lineto
638.000000 20.000000 lineto
638.000000 20.000000 lineto
638.000000 20.000000 lineto
470.707181 22.243275 lineto
365.102229 22.214060 lineto
264.981396 22.234024 lineto
174.853633 22.228668 lineto
91.863650 22.418569 lineto
45.000000 20.000000 lineto
closepath
gsave
0.500000 0.900000 0.000000 setrgbcolor
fill
grestore
stroke
45.000000 20.000000 moveto
45.000000 20.000000 lineto
91.863650 22.418569 lineto
174.853633 22.228668 lineto
264.981396 22.234024 lineto
365.102229 22.214060 lineto
470.707181 22.243275 lineto
638.000000 20.000000 lineto
638.000000 20.000000 lineto
638.000000 20.000000 lineto
470.707181 26.757581 lineto
365.102229 26.803353 lineto
264.981396 26.720088 lineto
174.853633 26.567680 lineto
91.863650 26.812604 lineto
45.000000 20.000000 lineto
closepath
gsave
0.500000 1.000000 1.000000 setrgbcolor
fill
grestore
stroke
45.000000 20.000000 moveto
45.000000 20.000000 lineto
91.863650 26.812604 lineto
174.853633 26.567680 lineto
264.981396 26.720088 lineto
365.102229 26.803353 lineto
470.707181 26.757581 lineto
638.000000 20.000000 lineto
638.000000 20.000000 lineto
638.000000 20.000000 lineto
470.707181 39.445941 lineto
365.102229 39.740045 lineto
264.981396 39.408448 lineto
174.853633 38.511040 lineto
91.863650 38.755965 lineto
45.000000 20.000000 lineto
closepath
gsave
1.000000 0.000000 0.500000 setrgbcolor
fill
grestore
stroke
45.000000 20.000000 moveto
45.000000 20.000000 lineto
91.863650 38.755965 lineto
174.853633 38.511040 lineto
264.981396 39.408448 lineto
365.102229 39.740045 lineto
470.707181 39.445941 lineto
638.000000 20.000000 lineto
638.000000 20.000000 lineto
638.000000 20.000000 lineto
470.707181 52.799931 lineto
365.102229 53.072123 lineto
264.981396 52.735169 lineto
174.853633 51.833866 lineto
91.863650 52.053957 lineto
45.000000 20.000000 lineto
closepath
gsave
1.000000 0.500000 0.000000 setrgbcolor
fill
grestore
stroke
45.000000 20.000000 moveto
45.000000 20.000000 lineto
91.863650 52.053957 lineto
174.853633 51.833866 lineto
264.981396 52.735169 lineto
365.102229 53.072123 lineto
470.707181 52.799931 lineto
638.000000 20.000000 lineto
638.000000 20.000000 lineto
638.000000 20.000000 lineto
470.707181 193.605761 lineto
365.102229 165.065473 lineto
264.981396 134.598899 lineto
174.853633 102.669108 lineto
91.863650 73.478772 lineto
45.000000 20.000000 lineto
closepath
gsave
1.000000 0.500000 1.000000 setrgbcolor
fill
grestore
stroke
45.000000 20.000000 moveto
45.000000 20.000000 lineto
91.863650 73.478772 lineto
174.853633 102.669108 lineto
264.981396 134.598899 lineto
365.102229 165.065473 lineto
470.707181 193.605761 lineto
638.000000 20.000000 lineto
638.000000 20.000000 lineto
638.000000 20.000000 lineto
470.707181 382.000000 lineto
365.102229 315.039176 lineto
264.981396 244.391336 lineto
174.853633 171.096071 lineto
91.863650 102.694429 lineto
45.000000 20.000000 lineto
closepath
gsave
1.000000 1.000000 0.500000 setrgbcolor
fill
grestore
stroke
showpage
